{ "package" : "mytestcase.testing.testType",
  "classes" : [
    {"name" : "testType",
      "fields" : [
        {"name" : "intType", "type" : "int"},
        {"name" : "booleanType", "type" : "boolean"},
        {"name" : "byteType", "type" : "byte"},
        {"name" : "floatType", "type" : "float"},
        {"name" : "doubleType", "type": "double"},
        {"name" : "charType", "type" : "char"},
        {"name" : "longType", "type": "long"},
        {"name" : "shortType", "type": "short"},
        {"name" : "intArr", "type" : {"e": {"e": "int"}}},
        {"name" : "booleanArr", "type" :  {"e": {"e": "boolean"}}},
        {"name" : "byteArr", "type" : {"e": {"e": "byte"}}},
        {"name" : "floatArr", "type" : {"e": {"e": "float"}}},
        {"name" : "doubleArr", "type": {"e": {"e": {"e": "double"}}}},
        {"name" : "charArr", "type" : {"e": "char"}},
        {"name" : "longArr", "type": {"e": {"e": {"e": {"e": "long"}}}}},
        {"name" : "shortArr", "type": {"e": {"e": "short"}}}
      ]}
  ]}
