{ "package" : "mytestcase.testing.testNonprimitive",
  "classes" : [
    {"name" : "testType",
      "fields" : [
        {"name" : "AType", "type" : "A"},
        {"name" : "BType", "type" : "B"},
        {"name" : "CType", "type" : "C"},
        {"name" : "DDType", "type" : "DD"},
        {"name" : "EEEType", "type": "EEE"},
        {"name" : "FFType", "type" : "FF"},
        {"name" : "GType", "type": "G"},
        {"name" : "HType", "type": "H"},
        {"name" : "IIIIIIArr", "type" : {"e": {"e": "IIIIII"}}},
        {"name" : "JArr", "type" :  {"e": {"e": "J"}}},
        {"name" : "KArr", "type" : {"e": {"e": "K"}}},
        {"name" : "LArr", "type" : {"e": {"e": "L"}}},
        {"name" : "MArr", "type": {"e": {"e": {"e": "M"}}}},
        {"name" : "NArr", "type" : {"e": "N"}},
        {"name" : "OArr", "type": {"e": {"e": {"e": {"e": "O"}}}}},
        {"name" : "PPPPPPPPPPPPPPArr", "type": {"e": {"e": "PPPPPPPPPPPPPP"}}}
      ]}
  ]}
